{
  "colors": [
    {
      "id": 1,
      "name": "red"
    },
    {
      "id": 2,
      "name": "blue"
    },
    {
      "id": 3,
      "name": "yellow"
    },
    {
      "name": "purple",
      "id": 4
    },
    {
      "name": "pink",
      "id": 5
    },
    {
      "name": "orange ",
      "id": 6
    }
  ]
}